Teaching intro data science and assessing learning
…
Preprocess

us_votes

# A tibble: 5,718 × 14
    rcid country       country_code vote  session importantvote date       unres      amend  para short                       descr                                                     short_name issue
   <dbl> <chr>         <chr>        <fct>   <dbl> <chr>         <date>     <chr>      <int> <int> <chr>                       <chr>                                                     <chr>      <chr>
 1     6 United States US           no          1 No            1946-01-04 R/1/107        0     0 DECLARATION OF HUMAN RIGHTS "TO ADOPT A CUBAN PROPOSAL (A/3-C) THAT AN ITEM ON A DEC… hr         4    
 2     8 United States US           no          1 No            1946-01-05 R/1/297        1     0 ECOSOC POWERS               "TO ADOPT A SECOND 6TH COMM. AMENDMENT (A/14) TO THE PRO… ec         3    
 3    11 United States US           yes         1 No            1946-02-05 R/1/376        0     0 TRUSTEESHIP AMENDMENTS      "TO ADOPT DRAFT RESOLUTIONS I AND II AS A WHOLE, OF THE … co         1    
 4    11 United States US           yes         1 No            1946-02-05 R/1/376        0     0 TRUSTEESHIP AMENDMENTS      "TO ADOPT DRAFT RESOLUTIONS I AND II AS A WHOLE, OF THE … ec         3    
 5    18 United States US           no          1 No            1946-02-03 R/1/532        1     0 ECOSOC CONSULTANTS          "TO ADOPT USSR (ORAL) AMENDMENT REPLACING THE 1ST COMM. … ec         3    
 6    19 United States US           yes         1 No            1946-02-03 R/1/534        0     0 ECOSOC CONSULTANTS          "TO ADOPT THE 1ST COMM. DRAFT RESOLUTION (A/54/REV.1) PR… ec         3    
 7    24 United States US           yes         1 No            1946-12-05 R/1/1229       0     0 ECOSOC ELECTIONS            "TO ADOPT BELGIAN ORAL PROPOSAL TO SURRENDER BELGIUM'S S… ec         3    
 8    26 United States US           no          1 No            1946-12-06 R/1/1286       0     0 TRUSTEESHIP AGREEMENTS      "TO ADOPT USSR ORAL RESOL. REJECTING 8 DRAFT TRUSTEESHIP… co         1    
 9    27 United States US           yes         1 No            1946-12-06 R/1/1287/A     0     0 NEW GUINEA TRUSTEESHIP      "TO ADOPT THE TRUSTEESHIP AGREEMENT FOR NEW GUINEA SUBMI… co         1    
10    28 United States US           yes         1 No            1946-12-06 R/1/1287/B     0     0 RUANDA-URUNDI TRUSTEESHIP   "TO ADOPT THE TRUSTEESHIP AGREEMENT FOR RUANDA-URUNDI SU… co         1    
# ℹ 5,708 more rows
…
infer 1

evals |>
  specify(score ~ gender)

Response: score (numeric)
Explanatory: gender (factor)
# A tibble: 463 × 2
  score gender
  <dbl> <fct> 
1   4.7 female
2   4.1 female
3   3.9 female
4   4.8 female
5   4.6 male  
6   4.3 male  
# ℹ 457 more rows

infer 2

set.seed(1234)
evals |>
  specify(score ~ gender) |>
  generate(reps = 100, type = "bootstrap")

Response: score (numeric)
Explanatory: gender (factor)
# A tibble: 46,300 × 3
# Groups:   replicate [100]
  replicate score gender
      <int> <dbl> <fct> 
1         1   4   female
2         1   3.1 male  
3         1   5   male  
4         1   4.4 male  
5         1   3.5 female
6         1   4.5 female
# ℹ 46,294 more rows

infer 3

set.seed(1234)
evals |>
  specify(score ~ gender) |>
  generate(reps = 100, type = "bootstrap") |>
  calculate(stat = "diff in means", order = c("male", "female"))

Response: score (numeric)
Explanatory: gender (factor)
# A tibble: 100 × 2
  replicate  stat
      <int> <dbl>
1         1 0.230
2         2 0.134
3         3 0.100
4         4 0.230
5         5 0.128
6         6 0.201
# ℹ 94 more rows
…
